circuit-level/xschem/test_adc.vcd
$date July 25, 2023 11:22:53 $end
$version ngspice 40 $end
$timescale 1 ps $end
$var wire 1 ! b1 $end
$var wire 1 " b0 $end
$var wire 1 # d2 $end
$var wire 1 $ d1 $end
$var wire 1 % d0 $end
$enddefinitions $end
#0
$dumpvars
0!
0"
0#
x$
1%
$end
#403831
1$
#801801
1!
#650674378
x#
#651513611
1#
#656953985
1"
#3254817476
x#
#3255656709
0#
#3266201585
0"
#3905910469
x$
#3906597122
0$
#3907078185
0!
#3907078885
1"
#4556927178
x%
#4557766411
0%
#4563199885
0"
#7161070276
x%
#7161909509
1%
#7172462085
1"
#7812163269
x$


